<?xml version="1.0" encoding="utf-8"?>
<!-- Generator: Adobe Illustrator 25.0.1, SVG Export Plug-In . SVG Version: 6.00 Build 0)  -->
<svg version="1.1" id="Layer_1" xmlns="http://www.w3.org/2000/svg" xmlns:xlink="http://www.w3.org/1999/xlink" x="0px" y="0px"
	 viewBox="0 0 80 80" style="enable-background:new 0 0 80 80;" xml:space="preserve" width="60" height="60">
<style type="text/css">
	.st0{fill:none;stroke:#F7CC47;stroke-width:2;stroke-miterlimit:10;}
</style>
<g>
	<circle class="st0" cx="40" cy="40" r="36.45"/>
	<g>
		<line class="st0" x1="21.19" y1="21.19" x2="58.81" y2="58.81"/>
		<line class="st0" x1="58.11" y1="21.19" x2="21.19" y2="58.11"/>
	</g>
</g>
</svg>
